{
	"category": "headers",
	"name": "Header",
	"displayName": "Large header",
	"description": "Large header with configurable size",
	"inputs": {
		"text-header": "string",
		"size": "number",
		"align": "string"
	},
	"defaults": {
		"text-header": "",
		"size": 1.875,
		"align": "center"
	}
}
